^C:\USERS\АНДРЕЙ\SOURCE\REPOS\C++7\C++7.CPP
C:\USERS\Андрей\SOURCE\REPOS\C++7\X64\DEBUG\VC143.PDB
C:\USERS\Андрей\SOURCE\REPOS\C++7\X64\DEBUG\VC143.IDB
C:\USERS\Андрей\SOURCE\REPOS\C++7\X64\DEBUG\C++7.OBJ
